{"count":102,"next":"https://rebrickable.com/api/v3/lego/sets/?page=2&page_size=60&theme_id=601","previous":null,"results":[{"set_num":"30342-1","name":"Lamborghini Huracán Super Trofeo EVO","year":2020,"theme_id":601,"num_parts":70,"set_img_url":"https://cdn.rebrickable.com/media/sets/30342-1/55591.jpg","set_url":"https://rebrickable.com/sets/30342-1/lamborghini-huracán-super-trofeo-evo/","last_modified_dt":"2024-08-20T11:53:57.932311Z"},{"set_num":"30343-1","name":"McLaren Elva","year":2021,"theme_id":601,"num_parts":86,"set_img_url":"https://cdn.rebrickable.com/media/sets/30343-1/79541.jpg","set_url":"https://rebrickable.com/sets/30343-1/mclaren-elva/","last_modified_dt":"2022-09-24T21:08:32.112948Z"},{"set_num":"30434-1","name":"Aston Martin Valkyrie AMR Pro","year":2022,"theme_id":601,"num_parts":97,"set_img_url":"https://cdn.rebrickable.com/media/sets/30434-1/99620.jpg","set_url":"https://rebrickable.com/sets/30434-1/aston-martin-valkyrie-amr-pro/","last_modified_dt":"2022-09-24T21:08:45.314172Z"},{"set_num":"30657-1","name":"McLaren Solus GT","year":2023,"theme_id":601,"num_parts":95,"set_img_url":"https://cdn.rebrickable.com/media/sets/30657-1/117964.jpg","set_url":"https://rebrickable.com/sets/30657-1/mclaren-solus-gt/","last_modified_dt":"2023-02-24T09:07:00.076451Z"},{"set_num":"30683-1","name":"McLaren Formula 1 Car","year":2024,"theme_id":601,"num_parts":58,"set_img_url":"https://cdn.rebrickable.com/media/sets/30683-1/141322.jpg","set_url":"https://rebrickable.com/sets/30683-1/mclaren-formula-1-car/","last_modified_dt":"2024-12-23T18:31:47.269521Z"},{"set_num":"30709-1","name":"Ferrari 499P - Hypercar","year":2025,"theme_id":601,"num_parts":62,"set_img_url":"https://cdn.rebrickable.com/media/sets/30709-1/154627.jpg","set_url":"https://rebrickable.com/sets/30709-1/ferrari-499p-hypercar/","last_modified_dt":"2025-02-01T17:48:16.775738Z"},{"set_num":"30734-1","name":"Mini F1 ACADEMY Car","year":2026,"theme_id":601,"num_parts":58,"set_img_url":"https://cdn.rebrickable.com/media/sets/30734-1/169183.jpg","set_url":"https://rebrickable.com/sets/30734-1/mini-f1-academy-car/","last_modified_dt":"2026-02-28T18:44:02.415885Z"},{"set_num":"5004550-1","name":"Speed Champions Collection","year":2015,"theme_id":601,"num_parts":0,"set_img_url":"https://cdn.rebrickable.com/media/sets/5004550-1/3298.jpg","set_url":"https://rebrickable.com/sets/5004550-1/speed-champions-collection/","last_modified_dt":"2015-04-15T13:08:39.616921Z"},{"set_num":"5004559-1","name":"Speed Champions Collection 2","year":2015,"theme_id":601,"num_parts":0,"set_img_url":"https://cdn.rebrickable.com/media/sets/5004559-1/2734.jpg","set_url":"https://rebrickable.com/sets/5004559-1/speed-champions-collection-2/","last_modified_dt":"2015-04-15T13:10:06.990208Z"},{"set_num":"66647-1","name":"Speed Champions Bundle","year":2020,"theme_id":601,"num_parts":0,"set_img_url":"https://cdn.rebrickable.com/media/sets/66647-1/74844.jpg","set_url":"https://rebrickable.com/sets/66647-1/speed-champions-bundle/","last_modified_dt":"2020-10-28T07:55:18.026085Z"},{"set_num":"66802-1","name":"Ultimate Formula 1 Collector's Pack","year":2025,"theme_id":601,"num_parts":1,"set_img_url":"https://cdn.rebrickable.com/media/sets/66802-1/148304.jpg","set_url":"https://rebrickable.com/sets/66802-1/ultimate-formula-1-collectors-pack/","last_modified_dt":"2024-11-28T08:35:04.043497Z"},{"set_num":"75870-1","name":"Chevrolet Corvette Z06","year":2016,"theme_id":601,"num_parts":176,"set_img_url":"https://cdn.rebrickable.com/media/sets/75870-1/17232.jpg","set_url":"https://rebrickable.com/sets/75870-1/chevrolet-corvette-z06/","last_modified_dt":"2024-01-13T21:30:07.338840Z"},{"set_num":"75871-1","name":"Ford Mustang GT","year":2016,"theme_id":601,"num_parts":188,"set_img_url":"https://cdn.rebrickable.com/media/sets/75871-1/15767.jpg","set_url":"https://rebrickable.com/sets/75871-1/ford-mustang-gt/","last_modified_dt":"2024-01-13T21:30:29.182178Z"},{"set_num":"75872-1","name":"Audi R18 e-tron quattro","year":2016,"theme_id":601,"num_parts":169,"set_img_url":"https://cdn.rebrickable.com/media/sets/75872-1/17268.jpg","set_url":"https://rebrickable.com/sets/75872-1/audi-r18-e-tron-quattro/","last_modified_dt":"2024-01-13T21:24:27.128311Z"},{"set_num":"75873-1","name":"Audi R8 LMS ultra","year":2016,"theme_id":601,"num_parts":178,"set_img_url":"https://cdn.rebrickable.com/media/sets/75873-1/6720.jpg","set_url":"https://rebrickable.com/sets/75873-1/audi-r8-lms-ultra/","last_modified_dt":"2024-01-13T21:30:24.193250Z"},{"set_num":"75874-1","name":"Chevrolet Camaro Drag Race","year":2016,"theme_id":601,"num_parts":448,"set_img_url":"https://cdn.rebrickable.com/media/sets/75874-1/17242.jpg","set_url":"https://rebrickable.com/sets/75874-1/chevrolet-camaro-drag-race/","last_modified_dt":"2024-01-13T21:30:19.603321Z"},{"set_num":"75875-1","name":"Ford F-150 Raptor & Ford Model A Hot Rod","year":2016,"theme_id":601,"num_parts":672,"set_img_url":"https://cdn.rebrickable.com/media/sets/75875-1/15764.jpg","set_url":"https://rebrickable.com/sets/75875-1/ford-f-150-raptor-ford-model-a-hot-rod/","last_modified_dt":"2024-01-13T21:30:02.740790Z"},{"set_num":"75876-1","name":"Porsche 919 Hybrid and 917K Pit Lane","year":2016,"theme_id":601,"num_parts":743,"set_img_url":"https://cdn.rebrickable.com/media/sets/75876-1/13172.jpg","set_url":"https://rebrickable.com/sets/75876-1/porsche-919-hybrid-and-917k-pit-lane/","last_modified_dt":"2024-01-13T21:30:57.553415Z"},{"set_num":"75877-1","name":"Mercedes-AMG GT3","year":2017,"theme_id":601,"num_parts":203,"set_img_url":"https://cdn.rebrickable.com/media/sets/75877-1/15784.jpg","set_url":"https://rebrickable.com/sets/75877-1/mercedes-amg-gt3/","last_modified_dt":"2024-01-13T21:31:09.205852Z"},{"set_num":"75878-1","name":"Bugatti Chiron","year":2017,"theme_id":601,"num_parts":188,"set_img_url":"https://cdn.rebrickable.com/media/sets/75878-1/11973.jpg","set_url":"https://rebrickable.com/sets/75878-1/bugatti-chiron/","last_modified_dt":"2024-01-13T21:31:03.854841Z"},{"set_num":"75879-1","name":"Scuderia Ferrari SF16-H","year":2017,"theme_id":601,"num_parts":184,"set_img_url":"https://cdn.rebrickable.com/media/sets/75879-1/15788.jpg","set_url":"https://rebrickable.com/sets/75879-1/scuderia-ferrari-sf16-h/","last_modified_dt":"2024-01-13T21:31:13.267990Z"},{"set_num":"75880-1","name":"McLaren 720S","year":2017,"theme_id":601,"num_parts":168,"set_img_url":"https://cdn.rebrickable.com/media/sets/75880-1/15777.jpg","set_url":"https://rebrickable.com/sets/75880-1/mclaren-720s/","last_modified_dt":"2024-01-13T21:31:18.842018Z"},{"set_num":"75881-1","name":"2016 Ford GT & 1966 Ford GT40","year":2017,"theme_id":601,"num_parts":373,"set_img_url":"https://cdn.rebrickable.com/media/sets/75881-1/15759.jpg","set_url":"https://rebrickable.com/sets/75881-1/2016-ford-gt-1966-ford-gt40/","last_modified_dt":"2024-01-13T21:17:17.258813Z"},{"set_num":"75882-1","name":"Ferrari FXX K & Development Center","year":2017,"theme_id":601,"num_parts":497,"set_img_url":"https://cdn.rebrickable.com/media/sets/75882-1/17176.jpg","set_url":"https://rebrickable.com/sets/75882-1/ferrari-fxx-k-development-center/","last_modified_dt":"2024-01-13T21:17:22.015557Z"},{"set_num":"75883-1","name":"MERCEDES AMG PETRONAS Formula One Team","year":2017,"theme_id":601,"num_parts":963,"set_img_url":"https://cdn.rebrickable.com/media/sets/75883-1/14504.jpg","set_url":"https://rebrickable.com/sets/75883-1/mercedes-amg-petronas-formula-one-team/","last_modified_dt":"2024-01-13T21:17:29.366106Z"},{"set_num":"75884-1","name":"1968 Ford Mustang Fastback","year":2018,"theme_id":601,"num_parts":183,"set_img_url":"https://cdn.rebrickable.com/media/sets/75884-1/162.jpg","set_url":"https://rebrickable.com/sets/75884-1/1968-ford-mustang-fastback/","last_modified_dt":"2024-01-13T21:31:23.094170Z"},{"set_num":"75885-1","name":"Ford Fiesta M-Sport WRC","year":2018,"theme_id":601,"num_parts":206,"set_img_url":"https://cdn.rebrickable.com/media/sets/75885-1/26674.jpg","set_url":"https://rebrickable.com/sets/75885-1/ford-fiesta-m-sport-wrc/","last_modified_dt":"2024-01-13T21:31:36.534307Z"},{"set_num":"75886-1","name":"Ferrari 488 GT3 \"Scuderia Corsa\"","year":2018,"theme_id":601,"num_parts":186,"set_img_url":"https://cdn.rebrickable.com/media/sets/75886-1/15008.jpg","set_url":"https://rebrickable.com/sets/75886-1/ferrari-488-gt3-scuderia-corsa/","last_modified_dt":"2024-01-13T21:31:27.900417Z"},{"set_num":"75887-1","name":"Porsche 919 Hybrid","year":2018,"theme_id":601,"num_parts":170,"set_img_url":"https://cdn.rebrickable.com/media/sets/75887-1/635.jpg","set_url":"https://rebrickable.com/sets/75887-1/porsche-919-hybrid/","last_modified_dt":"2024-01-13T21:31:47.613540Z"},{"set_num":"75888-1","name":"Porsche 911 RSR and 911 Turbo 3.0","year":2018,"theme_id":601,"num_parts":398,"set_img_url":"https://cdn.rebrickable.com/media/sets/75888-1/11303.jpg","set_url":"https://rebrickable.com/sets/75888-1/porsche-911-rsr-and-911-turbo-30/","last_modified_dt":"2024-01-13T21:31:43.205191Z"},{"set_num":"75889-1","name":"Ferrari Ultimate Garage","year":2018,"theme_id":601,"num_parts":856,"set_img_url":"https://cdn.rebrickable.com/media/sets/75889-1/26137.jpg","set_url":"https://rebrickable.com/sets/75889-1/ferrari-ultimate-garage/","last_modified_dt":"2024-01-13T21:31:32.466115Z"},{"set_num":"75890-1","name":"Ferrari F40 Competizione","year":2019,"theme_id":601,"num_parts":200,"set_img_url":"https://cdn.rebrickable.com/media/sets/75890-1/11004.jpg","set_url":"https://rebrickable.com/sets/75890-1/ferrari-f40-competizione/","last_modified_dt":"2024-01-13T21:32:39.616042Z"},{"set_num":"75891-1","name":"Chevrolet Camaro ZL1 Race Car","year":2019,"theme_id":601,"num_parts":198,"set_img_url":"https://cdn.rebrickable.com/media/sets/75891-1/11027.jpg","set_url":"https://rebrickable.com/sets/75891-1/chevrolet-camaro-zl1-race-car/","last_modified_dt":"2024-01-13T21:32:34.441258Z"},{"set_num":"75892-1","name":"McLaren Senna","year":2019,"theme_id":601,"num_parts":222,"set_img_url":"https://cdn.rebrickable.com/media/sets/75892-1/16257.jpg","set_url":"https://rebrickable.com/sets/75892-1/mclaren-senna/","last_modified_dt":"2024-01-13T21:32:43.800021Z"},{"set_num":"75893-1","name":"2018 Dodge Challenger SRT Demon and 1970 Dodge Charger R/T","year":2019,"theme_id":601,"num_parts":485,"set_img_url":"https://cdn.rebrickable.com/media/sets/75893-1/15770.jpg","set_url":"https://rebrickable.com/sets/75893-1/2018-dodge-challenger-srt-demon-and-1970-dodge-charger-rt/","last_modified_dt":"2024-01-13T21:32:29.557004Z"},{"set_num":"75894-1","name":"1967 Mini Cooper S Rally and 2018 MINI John Cooper Works Buggy","year":2019,"theme_id":601,"num_parts":492,"set_img_url":"https://cdn.rebrickable.com/media/sets/75894-1/21903.jpg","set_url":"https://rebrickable.com/sets/75894-1/1967-mini-cooper-s-rally-and-2018-mini-john-cooper-works-buggy/","last_modified_dt":"2024-01-13T21:32:17.308609Z"},{"set_num":"75895-1","name":"1974 Porsche 911 Turbo 3.0","year":2019,"theme_id":601,"num_parts":180,"set_img_url":"https://cdn.rebrickable.com/media/sets/75895-1/22632.jpg","set_url":"https://rebrickable.com/sets/75895-1/1974-porsche-911-turbo-30/","last_modified_dt":"2019-08-12T17:55:12.656320Z"},{"set_num":"75899-1","name":"LaFerrari","year":2015,"theme_id":601,"num_parts":167,"set_img_url":"https://cdn.rebrickable.com/media/sets/75899-1/15765.jpg","set_url":"https://rebrickable.com/sets/75899-1/laferrari/","last_modified_dt":"2024-01-13T21:24:01.076870Z"},{"set_num":"75908-1","name":"458 Italia GT2","year":2015,"theme_id":601,"num_parts":156,"set_img_url":"https://cdn.rebrickable.com/media/sets/75908-1/17277.jpg","set_url":"https://rebrickable.com/sets/75908-1/458-italia-gt2/","last_modified_dt":"2024-01-13T21:23:09.889605Z"},{"set_num":"75909-1","name":"McLaren P1","year":2015,"theme_id":601,"num_parts":171,"set_img_url":"https://cdn.rebrickable.com/media/sets/75909-1/17272.jpg","set_url":"https://rebrickable.com/sets/75909-1/mclaren-p1/","last_modified_dt":"2024-01-13T21:24:11.507449Z"},{"set_num":"75910-1","name":"Porsche 918 Spyder","year":2015,"theme_id":601,"num_parts":154,"set_img_url":"https://cdn.rebrickable.com/media/sets/75910-1/15780.jpg","set_url":"https://rebrickable.com/sets/75910-1/porsche-918-spyder/","last_modified_dt":"2024-01-13T21:24:22.486399Z"},{"set_num":"75911-1","name":"McLaren Mercedes Pit Stop","year":2015,"theme_id":601,"num_parts":340,"set_img_url":"https://cdn.rebrickable.com/media/sets/75911-1/17279.jpg","set_url":"https://rebrickable.com/sets/75911-1/mclaren-mercedes-pit-stop/","last_modified_dt":"2024-01-13T21:24:06.306641Z"},{"set_num":"75912-1","name":"Porsche 911 GT Finish Line","year":2015,"theme_id":601,"num_parts":573,"set_img_url":"https://cdn.rebrickable.com/media/sets/75912-1/15768.jpg","set_url":"https://rebrickable.com/sets/75912-1/porsche-911-gt-finish-line/","last_modified_dt":"2024-01-13T21:24:16.174691Z"},{"set_num":"75913-1","name":"F14 T & Scuderia Ferrari Truck","year":2015,"theme_id":601,"num_parts":892,"set_img_url":"https://cdn.rebrickable.com/media/sets/75913-1/17270.jpg","set_url":"https://rebrickable.com/sets/75913-1/f14-t-scuderia-ferrari-truck/","last_modified_dt":"2024-01-13T21:23:55.278702Z"},{"set_num":"75995-1","name":"MERCEDES-AMG PETRONAS Team Gift 2017","year":2017,"theme_id":601,"num_parts":127,"set_img_url":"https://cdn.rebrickable.com/media/sets/75995-1/15130.jpg","set_url":"https://rebrickable.com/sets/75995-1/mercedes-amg-petronas-team-gift-2017/","last_modified_dt":"2019-08-09T16:43:39.131237Z"},{"set_num":"76895-1","name":"Ferrari F8 Tributo","year":2020,"theme_id":601,"num_parts":278,"set_img_url":"https://cdn.rebrickable.com/media/sets/76895-1/18079.jpg","set_url":"https://rebrickable.com/sets/76895-1/ferrari-f8-tributo/","last_modified_dt":"2019-11-19T16:07:01.844537Z"},{"set_num":"76896-1","name":"Nissan GT-R NISMO","year":2020,"theme_id":601,"num_parts":301,"set_img_url":"https://cdn.rebrickable.com/media/sets/76896-1/18676.jpg","set_url":"https://rebrickable.com/sets/76896-1/nissan-gt-r-nismo/","last_modified_dt":"2019-11-25T09:06:39.468483Z"},{"set_num":"76897-1","name":"1985 Audi Sport quattro S1","year":2020,"theme_id":601,"num_parts":253,"set_img_url":"https://cdn.rebrickable.com/media/sets/76897-1/18076.jpg","set_url":"https://rebrickable.com/sets/76897-1/1985-audi-sport-quattro-s1/","last_modified_dt":"2021-02-15T23:17:58.417198Z"},{"set_num":"76898-1","name":"Formula E Panasonic Jaguar Racing GEN2 car & Jaguar I-PACE eTROPHY","year":2020,"theme_id":601,"num_parts":571,"set_img_url":"https://cdn.rebrickable.com/media/sets/76898-1/17655.jpg","set_url":"https://rebrickable.com/sets/76898-1/formula-e-panasonic-jaguar-racing-gen2-car-jaguar-i-pace-etrophy/","last_modified_dt":"2019-11-13T09:39:49.463250Z"},{"set_num":"76899-1","name":"Lamborghini Urus ST-X & Lamborghini Huracán Super Trofeo EVO","year":2020,"theme_id":601,"num_parts":666,"set_img_url":"https://cdn.rebrickable.com/media/sets/76899-1/69073.jpg","set_url":"https://rebrickable.com/sets/76899-1/lamborghini-urus-st-x-lamborghini-huracán-super-trofeo-evo/","last_modified_dt":"2019-11-13T09:39:01.353919Z"},{"set_num":"76900-1","name":"Koenigsegg Jesko","year":2021,"theme_id":601,"num_parts":283,"set_img_url":"https://cdn.rebrickable.com/media/sets/76900-1/88049.jpg","set_url":"https://rebrickable.com/sets/76900-1/koenigsegg-jesko/","last_modified_dt":"2021-05-14T14:38:16.257988Z"},{"set_num":"76901-1","name":"Toyota GR Supra","year":2021,"theme_id":601,"num_parts":302,"set_img_url":"https://cdn.rebrickable.com/media/sets/76901-1/87532.jpg","set_url":"https://rebrickable.com/sets/76901-1/toyota-gr-supra/","last_modified_dt":"2021-05-14T13:40:44.984574Z"},{"set_num":"76902-1","name":"McLaren Elva","year":2021,"theme_id":601,"num_parts":266,"set_img_url":"https://cdn.rebrickable.com/media/sets/76902-1/87822.jpg","set_url":"https://rebrickable.com/sets/76902-1/mclaren-elva/","last_modified_dt":"2021-05-14T14:03:09.089614Z"},{"set_num":"76903-1","name":"Chevrolet Corvette C8.R Race Car and 1969 Chevrolet Corvette","year":2021,"theme_id":601,"num_parts":515,"set_img_url":"https://cdn.rebrickable.com/media/sets/76903-1/87577.jpg","set_url":"https://rebrickable.com/sets/76903-1/chevrolet-corvette-c8r-race-car-and-1969-chevrolet-corvette/","last_modified_dt":"2026-02-21T14:46:16.463555Z"},{"set_num":"76904-1","name":"Mopar Dodge//SRT Top Fuel Dragster and 1970 Dodge Challenger T/A","year":2021,"theme_id":601,"num_parts":627,"set_img_url":"https://cdn.rebrickable.com/media/sets/76904-1/88304.jpg","set_url":"https://rebrickable.com/sets/76904-1/mopar-dodgesrt-top-fuel-dragster-and-1970-dodge-challenger-ta/","last_modified_dt":"2021-05-18T04:22:54.460739Z"},{"set_num":"76905-1","name":"Ford GT Heritage Edition and Bronco R","year":2021,"theme_id":601,"num_parts":666,"set_img_url":"https://cdn.rebrickable.com/media/sets/76905-1/88059.jpg","set_url":"https://rebrickable.com/sets/76905-1/ford-gt-heritage-edition-and-bronco-r/","last_modified_dt":"2021-05-14T14:39:37.811420Z"},{"set_num":"76906-1","name":"1970 Ferrari 512 M","year":2022,"theme_id":601,"num_parts":291,"set_img_url":"https://cdn.rebrickable.com/media/sets/76906-1/97884.jpg","set_url":"https://rebrickable.com/sets/76906-1/1970-ferrari-512-m/","last_modified_dt":"2022-01-30T15:25:18.294221Z"},{"set_num":"76907-1","name":"Lotus Evija","year":2022,"theme_id":601,"num_parts":250,"set_img_url":"https://cdn.rebrickable.com/media/sets/76907-1/97890.jpg","set_url":"https://rebrickable.com/sets/76907-1/lotus-evija/","last_modified_dt":"2022-01-30T15:24:27.851692Z"},{"set_num":"76908-1","name":"Lamborghini Countach","year":2022,"theme_id":601,"num_parts":262,"set_img_url":"https://cdn.rebrickable.com/media/sets/76908-1/97861.jpg","set_url":"https://rebrickable.com/sets/76908-1/lamborghini-countach/","last_modified_dt":"2022-01-30T15:16:57.136628Z"},{"set_num":"76909-1","name":"Mercedes-AMG F1 W12 E Performance & Mercedes-AMG Project One","year":2022,"theme_id":601,"num_parts":567,"set_img_url":"https://cdn.rebrickable.com/media/sets/76909-1/97874.jpg","set_url":"https://rebrickable.com/sets/76909-1/mercedes-amg-f1-w12-e-performance-mercedes-amg-project-one/","last_modified_dt":"2022-06-26T07:11:12.637514Z"}]}